500 900 179
568 968 179
636 1036 179
704 1104 179
772 1172 182
840 1240 182
908 1308 182
976 1376 182
1044 1444 182
1112 1512 182
1180 1580 177
1248 1648 177
1316 1716 180
1384 1784 180
1452 1852 180
1520 1920 180
1588 1988 180
1656 2056 180
1724 2124 180
1792 2192 175
1860 2260 183
1928 2328 183
1996 2396 183
2064 2464 209
2132 2532 209
2200 2600 209
2268 2668 209
2336 2736 209
2404 2804 209
2472 2872 191
2540 2940 217
2608 3008 217
2676 3076 217
2744 3144 217
2812 3212 217
2880 3280 217
2948 3348 199
3016 3416 199
3084 3484 199
3152 3552 199
3220 3620 194
3288 3688 194
3356 3756 238
3424 3824 238
3492 3892 238
3560 3960 238
3628 4028 238
3696 4096 238
3764 4164 189
3832 4232 189
3900 4300 202
3968 4368 202
4036 4436 215
4104 4504 215
4172 4572 215
4240 4640 215
4308 4708 215
4376 4776 215
4444 4844 197
4512 4912 197
4580 4980 210
4648 5048 210
4716 5116 210
4784 5184 210
4852 5252 210
4920 5320 210
4988 5388 192
5056 5456 192
5124 5524 192
5192 5592 236
5260 5660 236
5328 5728 236
5396 5796 236
5464 5864 236
5532 5932 236
5600 6000 218
5668 6068 218
5736 6136 218
5804 6204 262
5872 6272 262
5940 6340 262
6008 6408 262
6076 6476 262
6144 6544 262
6212 6612 244
6280 6680 244
6348 6748 244
6416 6816 244
6484 6884 244
6552 6952 257
6620 7020 257
6688 7088 257
6756 7156 257
6824 7224 257
6892 7292 257
6960 7360 195
7028 7428 239
7096 7496 239
7164 7564 239
7232 7632 239
7300 7700 239
7368 7768 239
7436 7836 221
7504 7904 221
7572 7972 252
7640 8040 252
7708 8108 252
7776 8176 252
7844 8244 252
7912 8312 252
7980 8380 234
8048 8448 234
8116 8516 234
8184 8584 234
8252 8652 234
8320 8720 234
8388 8788 216
8456 8856 216
8524 8924 216
8592 8992 247
8660 9060 247
8728 9128 247
8796 9196 247
8864 9264 260
8932 9332 260
9000 9400 260
9068 9468 260
9136 9536 260
9204 9604 260
9272 9672 198
9340 9740 198
9408 9808 198
9476 9876 211
9544 9944 242
9612 10012 242
9680 10080 242
9748 10148 242
9816 10216 242
9884 10284 242
9952 10352 242
10020 10420 255
10088 10488 255
10156 10556 255
10224 10624 255
10292 10692 255
10360 10760 255
10428 10828 255
10496 10896 255
10564 10964 255
10632 11032 268
10700 11100 268
10768 11168 268
10836 11236 268
10904 11304 268
10972 11372 237
11040 11440 237
11108 11508 237
11176 11576 237
11244 11644 237
11312 11712 237
11380 11780 237
11448 11848 237
11516 11916 219
11584 11984 250
11652 12052 250
11720 12120 250
11788 12188 250
11856 12256 250
11924 12324 250
11992 12392 263
12060 12460 263
12128 12528 263
12196 12596 263
12264 12664 263
12332 12732 263
12400 12800 263
12468 12868 263
12536 12936 263
12604 13004 201
12672 13072 201
12740 13140 214
12808 13208 245
12876 13276 276
12944 13344 276
13012 13412 276
13080 13480 276
13148 13548 276
13216 13616 276
13284 13684 245
13352 13752 245
13420 13820 245
13488 13888 258
13556 13956 258
13624 14024 258
13692 14092 258
13760 14160 258
13828 14228 258
13896 14296 196
13964 14364 196
14032 14432 196
14100 14500 209
14168 14568 209
14236 14636 209
14304 14704 271
14372 14772 271
14440 14840 271
